Utility and disclosure risk metrics for synthetic microdata and tables
…
  # Indicator that shows which target were used in this tabulation
  tmp_ind <- intersect(combinations[[x]], target_variables)
  out[tmp_ind] <- TRUE

  # Add table_id and n_way
  out |>
    dplyr::mutate(table_id = x, n_way = length(combinations[[x]]))
})

# Output
do.call(rbind, hellinger_res)

# A tibble: 260 × 6
   hellinger_dist trafficway_type damage injuries_fatal table_id n_way
            <dbl> <lgl>           <lgl>  <lgl>             <int> <int>
 1         0.0210 TRUE            FALSE  FALSE                 1     2
 2         0.0246 TRUE            FALSE  FALSE                 1     2
 3         0.0255 TRUE            FALSE  FALSE                 1     2
 4         0.0231 TRUE            FALSE  FALSE                 1     2
 5         0.0237 TRUE            FALSE  FALSE                 1     2
 6         0.0330 TRUE            FALSE  FALSE                 2     2
 7         0.0349 TRUE            FALSE  FALSE                 2     2
 8         0.0343 TRUE            FALSE  FALSE                 2     2
 9         0.0341 TRUE            FALSE  FALSE                 2     2
10         0.0330 TRUE            FALSE  FALSE                 2     2
# ℹ 250 more rows
…
